…
To analyze which carries made passengers suffer the most time lost, the
graph above plots the Carries against the total lost time. It seems like
JetBlue (B6), Continental (CO), and American Airlines (AA) all have more
lost time than the rest of the airlines. It should be noted that
American Airlines had the second most amount of flights, while Jet Blue
had far less flights.

    ## 95% 
    ## 183

The 95% of heights for female competitors across all Athletics events is
183 cm.

    ## # A tibble: 132 × 2
    ##    event                                 sdheight
    ##    <chr>                                    <dbl>
    ##  1 Rowing Women's Coxed Fours               10.9 
    ##  2 Basketball Women's Basketball             9.70
    ##  3 Rowing Women's Coxed Quadruple Sculls     9.25
    ##  4 Rowing Women's Coxed Eights               8.74
    ##  5 Swimming Women's 100 metres Butterfly     8.13
    ##  6 Volleyball Women's Volleyball             8.10
    ##  7 Gymnastics Women's Uneven Bars            8.02
    ##  8 Shooting Women's Double Trap              7.83
    ##  9 Cycling Women's Keirin                    7.76
    ## 10 Swimming Women's 400 metres Freestyle     7.62
    ## # … with 122 more rows
…
